<?xml version="1.0"?>
<svg width="640" height="480" xmlns="http://www.w3.org/2000/svg" xmlns:svg="http://www.w3.org/2000/svg">
 <!-- Created with SVG-edit - https://github.com/SVG-Edit/svgedit-->
 <g class="layer">
  <title>Layer 1</title>
  <path d="m327.583333,153.583333c0,0 114.5,187.5 114.5,187.5c0,0 -52.5,1 -52.5,1c0,0 -28,-44 -28,-44c0,0 -27,44 -27,44c0,0 -53.5,0 -53.5,0c0,0 54,-89 54,-89c0,0 -33.5,-57 -33.5,-57c0,0 26,-42.5 26,-42.5z" fill="rgb(0,0,0)" id="svg_2" stroke="#000000" stroke-dasharray="null" stroke-linecap="null" stroke-linejoin="null"/>
  <path d="m292.642857,211.642857c0,0 27,44 27,44c0,0 -53,87 -53,87c0,0 -54,-1 -54,-1c0,0 80,-130 80,-130z" fill="rgb(0,0,0)" id="svg_3" stroke="#000000" stroke-dasharray="null" stroke-linecap="null" stroke-linejoin="null"/>
 </g>
</svg>